<svg class="lds-flask" width="200px" height="200px" xmlns="http://www.w3.org/2000/svg" viewBox="0 0 100 100"
     preserveAspectRatio="xMidYMid" style="background: none;">
    <defs>
        <clipPath id="lds-flask-cpid-d745b936a53d5" clipPathUnits="userSpaceOnUse">
            <rect x="0" y="50" width="100" height="50"></rect>
        </clipPath>
        <pattern id="lds-flask-patid-5e87fbff76a67" patternUnits="userSpaceOnUse" x="0" y="0" width="100" height="100">
            <rect x="0" y="0" width="100" height="100" fill="#5699d2"></rect>
            <circle cx="90" cy="0" r="2" fill="#1d3f72" transform="translate(0 100.42)">
                <animateTransform attributeName="transform" type="translate" values="0 114;0 -14" keyTimes="0;1"
                                  dur="4.7s" begin="-0.799s" repeatCount="indefinite"></animateTransform>
            </circle>
            <circle cx="88" cy="0" r="2" fill="#1d3f72" transform="translate(0 -33.8967)">
                <animateTransform attributeName="transform" type="translate" values="0 140;0 -40" keyTimes="0;1"
                                  dur="4.7s" begin="-0.14100000000000001s" repeatCount="indefinite"></animateTransform>
            </circle>
            <circle cx="58" cy="0" r="2" fill="#1d3f72" transform="translate(0 114.81)">
                <animateTransform attributeName="transform" type="translate" values="0 123;0 -23" keyTimes="0;1"
                                  dur="4.7s" begin="-0.5640000000000001s" repeatCount="indefinite"></animateTransform>
            </circle>
            <circle cx="60" cy="0" r="2" fill="#1d3f72" transform="translate(0 22.8267)">
                <animateTransform attributeName="transform" type="translate" values="0 143;0 -43" keyTimes="0;1"
                                  dur="4.7s" begin="-3.3369999999999997s" repeatCount="indefinite"></animateTransform>
            </circle>
            <circle cx="25" cy="0" r="3" fill="#1d3f72" transform="translate(0 94.7436)">
                <animateTransform attributeName="transform" type="translate" values="0 117;0 -17" keyTimes="0;1"
                                  dur="4.7s" begin="-1.0810000000000002s" repeatCount="indefinite"></animateTransform>
            </circle>
            <circle cx="47" cy="0" r="3" fill="#1d3f72" transform="translate(0 82.6946)">
                <animateTransform attributeName="transform" type="translate" values="0 144;0 -44" keyTimes="0;1"
                                  dur="4.7s" begin="-1.8330000000000002s" repeatCount="indefinite"></animateTransform>
            </circle>
            <circle cx="46" cy="0" r="3" fill="#1d3f72" transform="translate(0 -11.5608)">
                <animateTransform attributeName="transform" type="translate" values="0 119;0 -19" keyTimes="0;1"
                                  dur="4.7s" begin="-0.047s" repeatCount="indefinite"></animateTransform>
            </circle>
            <circle cx="3" cy="0" r="2" fill="#1d3f72" transform="translate(0 102.354)">
                <animateTransform attributeName="transform" type="translate" values="0 103;0 -3" keyTimes="0;1"
                                  dur="4.7s" begin="-0.32899999999999996s" repeatCount="indefinite"></animateTransform>
            </circle>
            <circle cx="40" cy="0" r="2" fill="#1d3f72" transform="translate(0 2.08105)">
                <animateTransform attributeName="transform" type="translate" values="0 109;0 -9" keyTimes="0;1"
                                  dur="4.7s" begin="-4.559s" repeatCount="indefinite"></animateTransform>
            </circle>
            <circle cx="54" cy="0" r="3" fill="#1d3f72" transform="translate(0 62.8845)">
                <animateTransform attributeName="transform" type="translate" values="0 112;0 -12" keyTimes="0;1"
                                  dur="4.7s" begin="-2.1620000000000004s" repeatCount="indefinite"></animateTransform>
            </circle>
            <circle cx="45" cy="0" r="2" fill="#1d3f72" transform="translate(0 2.51204)">
                <animateTransform attributeName="transform" type="translate" values="0 136;0 -36" keyTimes="0;1"
                                  dur="4.7s" begin="-3.948s" repeatCount="indefinite"></animateTransform>
            </circle>
            <circle cx="68" cy="0" r="2" fill="#1d3f72" transform="translate(0 19.747)">
                <animateTransform attributeName="transform" type="translate" values="0 120;0 -20" keyTimes="0;1"
                                  dur="4.7s" begin="-3.6660000000000004s" repeatCount="indefinite"></animateTransform>
            </circle>
            <circle cx="16" cy="0" r="2" fill="#1d3f72" transform="translate(0 18.7992)">
                <animateTransform attributeName="transform" type="translate" values="0 119;0 -19" keyTimes="0;1"
                                  dur="4.7s" begin="-3.713s" repeatCount="indefinite"></animateTransform>
            </circle>
            <circle cx="13" cy="0" r="2" fill="#1d3f72" transform="translate(0 66.981)">
                <animateTransform attributeName="transform" type="translate" values="0 109;0 -9" keyTimes="0;1"
                                  dur="4.7s" begin="-1.974s" repeatCount="indefinite"></animateTransform>
            </circle>
            <circle cx="7" cy="0" r="2" fill="#1d3f72" transform="translate(0 91.4505)">
                <animateTransform attributeName="transform" type="translate" values="0 123;0 -23" keyTimes="0;1"
                                  dur="4.7s" begin="-1.3159999999999998s" repeatCount="indefinite"></animateTransform>
            </circle>
            <circle cx="32" cy="0" r="3" fill="#1d3f72" transform="translate(0 116.225)">
                <animateTransform attributeName="transform" type="translate" values="0 130;0 -30" keyTimes="0;1"
                                  dur="4.7s" begin="-0.705s" repeatCount="indefinite"></animateTransform>
            </circle>
            <circle cx="68" cy="0" r="3" fill="#1d3f72" transform="translate(0 147.794)">
                <animateTransform attributeName="transform" type="translate" values="0 149;0 -49" keyTimes="0;1"
                                  dur="4.7s" begin="-0.32899999999999996s" repeatCount="indefinite"></animateTransform>
            </circle>
            <circle cx="56" cy="0" r="2" fill="#1d3f72" transform="translate(0 17.4373)">
                <animateTransform attributeName="transform" type="translate" values="0 129;0 -29" keyTimes="0;1"
                                  dur="4.7s" begin="-3.619s" repeatCount="indefinite"></animateTransform>
            </circle>
            <circle cx="29" cy="0" r="2" fill="#1d3f72" transform="translate(0 81.3436)">
                <animateTransform attributeName="transform" type="translate" values="0 117;0 -17" keyTimes="0;1"
                                  dur="4.7s" begin="-1.551s" repeatCount="indefinite"></animateTransform>
            </circle>
            <circle cx="57" cy="0" r="2" fill="#1d3f72" transform="translate(0 70.5542)">
                <animateTransform attributeName="transform" type="translate" values="0 103;0 -3" keyTimes="0;1"
                                  dur="4.7s" begin="-1.739s" repeatCount="indefinite"></animateTransform>
            </circle>
            <circle cx="21" cy="0" r="3" fill="#1d3f72" transform="translate(0 118.658)">
                <animateTransform attributeName="transform" type="translate" values="0 124;0 -24" keyTimes="0;1"
                                  dur="4.7s" begin="-0.47s" repeatCount="indefinite"></animateTransform>
            </circle>
            <circle cx="1" cy="0" r="2" fill="#1d3f72" transform="translate(0 26.5493)">
                <animateTransform attributeName="transform" type="translate" values="0 151;0 -51" keyTimes="0;1"
                                  dur="4.7s" begin="-3.196s" repeatCount="indefinite"></animateTransform>
            </circle>
            <circle cx="18" cy="0" r="2" fill="#1d3f72" transform="translate(0 -15.0654)">
                <animateTransform attributeName="transform" type="translate" values="0 144;0 -44" keyTimes="0;1"
                                  dur="4.7s" begin="-4.277s" repeatCount="indefinite"></animateTransform>
            </circle>
            <circle cx="14" cy="0" r="3" fill="#1d3f72" transform="translate(0 85.6105)">
                <animateTransform attributeName="transform" type="translate" values="0 123;0 -23" keyTimes="0;1"
                                  dur="4.7s" begin="-1.504s" repeatCount="indefinite"></animateTransform>
            </circle>
            <circle cx="75" cy="0" r="2" fill="#1d3f72" transform="translate(0 129.47)">
                <animateTransform attributeName="transform" type="translate" values="0 146;0 -46" keyTimes="0;1"
                                  dur="4.7s" begin="-0.705s" repeatCount="indefinite"></animateTransform>
            </circle>
            <circle cx="5" cy="0" r="3" fill="#1d3f72" transform="translate(0 -19.2186)">
                <animateTransform attributeName="transform" type="translate" values="0 150;0 -50" keyTimes="0;1"
                                  dur="4.7s" begin="-4.277s" repeatCount="indefinite"></animateTransform>
            </circle>
            <circle cx="36" cy="0" r="2" fill="#1d3f72" transform="translate(0 84.653)">
                <animateTransform attributeName="transform" type="translate" values="0 131;0 -31" keyTimes="0;1"
                                  dur="4.7s" begin="-1.645s" repeatCount="indefinite"></animateTransform>
            </circle>
            <circle cx="65" cy="0" r="2" fill="#1d3f72" transform="translate(0 81.1424)">
                <animateTransform attributeName="transform" type="translate" values="0 145;0 -45" keyTimes="0;1"
                                  dur="4.7s" begin="-1.88s" repeatCount="indefinite"></animateTransform>
            </circle>
            <circle cx="45" cy="0" r="2" fill="#1d3f72" transform="translate(0 31.3001)">
                <animateTransform attributeName="transform" type="translate" values="0 114;0 -14" keyTimes="0;1"
                                  dur="4.7s" begin="-3.3369999999999997s" repeatCount="indefinite"></animateTransform>
            </circle>
            <circle cx="46" cy="0" r="3" fill="#1d3f72" transform="translate(0 13.6417)">
                <animateTransform attributeName="transform" type="translate" values="0 127;0 -27" keyTimes="0;1"
                                  dur="4.7s" begin="-3.76s" repeatCount="indefinite"></animateTransform>
            </circle>
            <circle cx="75" cy="0" r="2" fill="#1d3f72" transform="translate(0 95.392)">
                <animateTransform attributeName="transform" type="translate" values="0 136;0 -36" keyTimes="0;1"
                                  dur="4.7s" begin="-1.41s" repeatCount="indefinite"></animateTransform>
            </circle>
            <circle cx="19" cy="0" r="3" fill="#1d3f72" transform="translate(0 29.3958)">
                <animateTransform attributeName="transform" type="translate" values="0 116;0 -16" keyTimes="0;1"
                                  dur="4.7s" begin="-3.3840000000000003s" repeatCount="indefinite"></animateTransform>
            </circle>
            <circle cx="36" cy="0" r="3" fill="#1d3f72" transform="translate(0 -17.4686)">
                <animateTransform attributeName="transform" type="translate" values="0 118;0 -18" keyTimes="0;1"
                                  dur="4.7s" begin="-0.28200000000000003s" repeatCount="indefinite"></animateTransform>
            </circle>
            <circle cx="30" cy="0" r="3" fill="#1d3f72" transform="translate(0 6.78145)">
                <animateTransform attributeName="transform" type="translate" values="0 150;0 -50" keyTimes="0;1"
                                  dur="4.7s" begin="-3.6660000000000004s" repeatCount="indefinite"></animateTransform>
            </circle>
            <circle cx="64" cy="0" r="2" fill="#1d3f72" transform="translate(0 99.3764)">
                <animateTransform attributeName="transform" type="translate" values="0 134;0 -34" keyTimes="0;1"
                                  dur="4.7s" begin="-1.2690000000000001s" repeatCount="indefinite"></animateTransform>
            </circle>
            <circle cx="88" cy="0" r="3" fill="#1d3f72" transform="translate(0 93.2773)">
                <animateTransform attributeName="transform" type="translate" values="0 129;0 -29" keyTimes="0;1"
                                  dur="4.7s" begin="-1.3630000000000002s" repeatCount="indefinite"></animateTransform>
            </circle>
            <circle cx="40" cy="0" r="2" fill="#1d3f72" transform="translate(0 26.0932)">
                <animateTransform attributeName="transform" type="translate" values="0 108;0 -8" keyTimes="0;1"
                                  dur="4.7s" begin="-3.619s" repeatCount="indefinite"></animateTransform>
            </circle>
            <circle cx="8" cy="0" r="2" fill="#1d3f72" transform="translate(0 35.302)">
                <animateTransform attributeName="transform" type="translate" values="0 104;0 -4" keyTimes="0;1"
                                  dur="4.7s" begin="-3.29s" repeatCount="indefinite"></animateTransform>
            </circle>
            <circle cx="15" cy="0" r="2" fill="#1d3f72" transform="translate(0 -3.28081)">
                <animateTransform attributeName="transform" type="translate" values="0 119;0 -19" keyTimes="0;1"
                                  dur="4.7s" begin="-4.465s" repeatCount="indefinite"></animateTransform>
            </circle>
            <circle cx="68" cy="0" r="3" fill="#1d3f72" transform="translate(0 86.7208)">
                <animateTransform attributeName="transform" type="translate" values="0 132;0 -32" keyTimes="0;1"
                                  dur="4.7s" begin="-1.598s" repeatCount="indefinite"></animateTransform>
            </circle>
            <circle cx="85" cy="0" r="3" fill="#1d3f72" transform="translate(0 20.182)">
                <animateTransform attributeName="transform" type="translate" values="0 104;0 -4" keyTimes="0;1"
                                  dur="4.7s" begin="-3.948s" repeatCount="indefinite"></animateTransform>
            </circle>
            <circle cx="14" cy="0" r="3" fill="#1d3f72" transform="translate(0 31.5502)">
                <animateTransform attributeName="transform" type="translate" values="0 146;0 -46" keyTimes="0;1"
                                  dur="4.7s" begin="-3.102s" repeatCount="indefinite"></animateTransform>
            </circle>
            <circle cx="39" cy="0" r="3" fill="#1d3f72" transform="translate(0 101.182)">
                <animateTransform attributeName="transform" type="translate" values="0 104;0 -4" keyTimes="0;1"
                                  dur="4.7s" begin="-0.42300000000000004s" repeatCount="indefinite"></animateTransform>
            </circle>
            <circle cx="91" cy="0" r="3" fill="#1d3f72" transform="translate(0 89.6095)">
                <animateTransform attributeName="transform" type="translate" values="0 128;0 -28" keyTimes="0;1"
                                  dur="4.7s" begin="-1.457s" repeatCount="indefinite"></animateTransform>
            </circle>
            <circle cx="6" cy="0" r="3" fill="#1d3f72" transform="translate(0 69.3449)">
                <animateTransform attributeName="transform" type="translate" values="0 153;0 -53" keyTimes="0;1"
                                  dur="4.7s" begin="-2.209s" repeatCount="indefinite"></animateTransform>
            </circle>
            <circle cx="90" cy="0" r="3" fill="#1d3f72" transform="translate(0 8.78145)">
                <animateTransform attributeName="transform" type="translate" values="0 150;0 -50" keyTimes="0;1"
                                  dur="4.7s" begin="-3.619s" repeatCount="indefinite"></animateTransform>
            </circle>
            <circle cx="34" cy="0" r="3" fill="#1d3f72" transform="translate(0 62.5258)">
                <animateTransform attributeName="transform" type="translate" values="0 148;0 -48" keyTimes="0;1"
                                  dur="4.7s" begin="-2.35s" repeatCount="indefinite"></animateTransform>
            </circle>
            <circle cx="89" cy="0" r="2" fill="#1d3f72" transform="translate(0 98.6079)">
                <animateTransform attributeName="transform" type="translate" values="0 115;0 -15" keyTimes="0;1"
                                  dur="4.7s" begin="-0.893s" repeatCount="indefinite"></animateTransform>
            </circle>
            <circle cx="34" cy="0" r="2" fill="#1d3f72" transform="translate(0 103.375)">
                <animateTransform attributeName="transform" type="translate" values="0 144;0 -44" keyTimes="0;1"
                                  dur="4.7s" begin="-1.3159999999999998s" repeatCount="indefinite"></animateTransform>
            </circle>
            <circle cx="44" cy="0" r="3" fill="#1d3f72" transform="translate(0 49.0617)">
                <animateTransform attributeName="transform" type="translate" values="0 127;0 -27" keyTimes="0;1"
                                  dur="4.7s" begin="-2.6790000000000003s" repeatCount="indefinite"></animateTransform>
            </circle>
        </pattern>
    </defs>

    <path fill="url(#lds-flask-patid-5e87fbff76a67)" clip-path="url(#lds-flask-cpid-d745b936a53d5)"
          d="M59,37.3V18.9c3-0.8,5.1-3.6,5.1-6.8C64.1,8.2,61,5,57.1,5H42.9c-3.9,0-7.1,3.2-7.1,7.1c0,3.2,2.2,6,5.1,6.8v18.4c-11.9,3.8-20.6,15-20.6,28.2C20.4,81.8,33.7,95,50,95s29.6-13.2,29.6-29.6C79.6,52.2,70.9,41.1,59,37.3z"></path>

    <path fill="none" stroke="#d8ebf9" stroke-width="5"
          d="M59,37.3V18.9c3-0.8,5.1-3.6,5.1-6.8C64.1,8.2,61,5,57.1,5H42.9c-3.9,0-7.1,3.2-7.1,7.1c0,3.2,2.2,6,5.1,6.8v18.4c-11.9,3.8-20.6,15-20.6,28.2C20.4,81.8,33.7,95,50,95s29.6-13.2,29.6-29.6C79.6,52.2,70.9,41.1,59,37.3z"></path>
</svg>
